# 3ds Max Wavefront OBJ Exporter v0.97b - (c)2007 guruware
# File Created: 31.05.2017 10:38:24

mtllib mesadebar.mtl

#
# object Cylinder001
#

#
# object Cylinder003
#

v  31.0939 7.6457 0.6957
v  31.0938 7.6457 0.2060
v  -5.0803 7.6932 0.2117
v  -5.0803 7.6932 0.7014
v  31.0913 5.6681 0.6957
v  -5.0829 5.7156 0.7014
v  -5.0829 5.7156 0.2117
v  31.0912 5.6681 0.2060
v  32.2622 37.9672 1.3854
v  32.2617 37.9672 -0.6050
v  29.7698 37.9705 -0.6043
v  29.7703 37.9705 1.3861
v  32.2126 0.1812 1.3854
v  29.7207 0.1845 1.3861
v  29.7202 0.1845 -0.6043
v  32.2121 0.1812 -0.6050
v  -12.1255 39.0434 0.3875
v  -10.6339 39.0415 -8.0851
v  -10.6343 38.7834 -8.0851
v  -12.1258 38.7854 0.3875
v  -6.3346 39.0358 -15.5366
v  -6.3349 38.7777 -15.5366
v  0.2541 39.0272 -21.0682
v  0.2537 38.7691 -21.0682
v  8.3373 39.0166 -24.0127
v  8.3370 38.7585 -24.0127
v  16.9402 39.0053 -24.0151
v  16.9398 38.7472 -24.0151
v  25.0250 38.9947 -21.0750
v  25.0247 38.7366 -21.0750
v  31.6167 38.9860 -15.5470
v  31.6163 38.7279 -15.5470
v  35.9202 38.9804 -8.0978
v  35.9198 38.7223 -8.0978
v  37.4163 38.9784 0.3739
v  37.4160 38.7203 0.3739
v  35.9248 38.9804 8.8465
v  35.9245 38.7223 8.8465
v  31.6254 38.9860 16.2979
v  31.6251 38.7279 16.2979
v  25.0368 38.9946 21.8296
v  25.0364 38.7366 21.8296
v  16.9535 39.0053 24.7741
v  16.9532 38.7472 24.7741
v  8.3507 39.0166 24.7765
v  8.3504 38.7585 24.7765
v  0.2659 39.0272 21.8364
v  0.2655 38.7691 21.8364
v  -6.3258 39.0358 16.3084
v  -6.3262 38.7777 16.3084
v  -10.6293 39.0415 8.8592
v  -10.6296 38.7834 8.8592
v  -10.6346 38.5253 -8.0851
v  -12.1262 38.5273 0.3875
v  -6.3352 38.5197 -15.5366
v  0.2534 38.5110 -21.0682
v  8.3366 38.5004 -24.0127
v  16.9395 38.4891 -24.0151
v  25.0243 38.4785 -21.0750
v  31.6160 38.4698 -15.5470
v  35.9195 38.4642 -8.0978
v  37.4157 38.4622 0.3739
v  35.9241 38.4642 8.8465
v  31.6247 38.4698 16.2979
v  25.0361 38.4785 21.8296
v  16.9529 38.4891 24.7741
v  8.3500 38.5004 24.7765
v  0.2652 38.5110 21.8364
v  -6.3265 38.5197 16.3084
v  -10.6300 38.5253 8.8592
v  -10.6350 38.2672 -8.0851
v  -12.1265 38.2692 0.3875
v  -6.3356 38.2616 -15.5366
v  0.2531 38.2529 -21.0682
v  8.3363 38.2423 -24.0127
v  16.9391 38.2310 -24.0151
v  25.0240 38.2204 -21.0750
v  31.6157 38.2118 -15.5470
v  35.9191 38.2061 -8.0978
v  37.4153 38.2042 0.3739
v  35.9238 38.2061 8.8465
v  31.6244 38.2118 16.2979
v  25.0357 38.2204 21.8296
v  16.9525 38.2310 24.7741
v  8.3497 38.2423 24.7765
v  0.2648 38.2529 21.8364
v  -6.3268 38.2616 16.3084
v  -10.6303 38.2672 8.8592
v  -10.6353 38.0092 -8.0851
v  -12.1268 38.0111 0.3875
v  -6.3359 38.0035 -15.5366
v  0.2527 37.9949 -21.0682
v  8.3360 37.9843 -24.0127
v  16.9388 37.9730 -24.0151
v  25.0236 37.9623 -21.0750
v  31.6153 37.9537 -15.5470
v  35.9188 37.9480 -8.0978
v  37.4150 37.9461 0.3739
v  35.9234 37.9480 8.8465
v  31.6241 37.9537 16.2979
v  25.0354 37.9623 21.8296
v  16.9522 37.9730 24.7741
v  8.3493 37.9842 24.7765
v  0.2645 37.9949 21.8364
v  -6.3272 38.0035 16.3084
v  -10.6307 38.0092 8.8592
v  -10.6356 37.7511 -8.0851
v  -12.1272 37.7530 0.3875
v  -6.3363 37.7454 -15.5366
v  0.2524 37.7368 -21.0682
v  8.3356 37.7262 -24.0127
v  16.9385 37.7149 -24.0151
v  25.0233 37.7043 -21.0750
v  31.6150 37.6956 -15.5470
v  35.9185 37.6900 -8.0978
v  37.4146 37.6880 0.3739
v  35.9231 37.6900 8.8465
v  31.6237 37.6956 16.2979
v  25.0351 37.7043 21.8296
v  16.9518 37.7149 24.7741
v  8.3490 37.7262 24.7765
v  0.2642 37.7368 21.8364
v  -6.3275 37.7454 16.3084
v  -10.6310 37.7511 8.8592
v  13.4129 37.9919 20.4240
v  13.4123 37.9919 18.4335
v  10.9204 37.9952 18.4342
v  10.9210 37.9952 20.4246
v  13.3632 0.2060 20.4240
v  10.8714 0.2093 20.4247
v  10.8708 0.2093 18.4342
v  13.3627 0.2060 18.4335
v  -4.8486 38.0159 1.2005
v  -4.8491 38.0159 -0.7899
v  -7.3410 38.0192 -0.7893
v  -7.3405 38.0192 1.2012
v  -4.8982 0.2300 1.2005
v  -7.3901 0.2332 1.2012
v  -7.3906 0.2332 -0.7892
v  -4.8987 0.2300 -0.7899
v  13.6100 37.9917 -17.3931
v  13.6095 37.9917 -19.3835
v  11.1176 37.9949 -19.3829
v  11.1181 37.9949 -17.3924
v  13.5604 0.2057 -17.3931
v  11.0685 0.2090 -17.3924
v  11.0680 0.2090 -19.3828
v  13.5599 0.2057 -19.3835
v  11.9968 7.8779 18.8936
v  12.4865 7.8773 18.8959
v  12.6557 7.8770 -17.2778
v  12.1661 7.8777 -17.2802
v  11.9942 5.9004 18.8936
v  12.1635 5.9002 -17.2802
v  12.6531 5.8995 -17.2778
v  12.4839 5.8997 18.8959
# 156 vertices

vn 0.0008 1.0000 -0.0000
vn -0.0008 -1.0000 0.0000
vn 0.0001 -0.0000 1.0000
vn -1.0000 0.0022 0.0001
vn -0.0001 -0.0000 -1.0000
vn 1.0000 -0.0022 -0.0001
vn 0.0008 1.0000 0.0000
vn -0.0008 -1.0000 -0.0000
vn 0.0003 -0.0000 1.0000
vn -1.0000 0.0022 0.0003
vn -0.0003 0.0000 -1.0000
vn 1.0000 -0.0022 -0.0003
vn -0.9304 0.0020 -0.3664
vn -0.9305 0.0020 -0.3664
vn -0.7402 0.0016 -0.6724
vn -0.4704 0.0010 -0.8824
vn -0.4705 0.0010 -0.8824
vn -0.1607 0.0003 -0.9870
vn -0.1609 0.0003 -0.9870
vn 0.1605 -0.0003 -0.9870
vn 0.1604 -0.0003 -0.9871
vn 0.4702 -0.0010 -0.8826
vn 0.4701 -0.0010 -0.8826
vn 0.7399 -0.0016 -0.6727
vn 0.7399 -0.0016 -0.6728
vn 0.9303 -0.0020 -0.3669
vn 0.9302 -0.0020 -0.3669
vn 0.9305 -0.0020 0.3663
vn 0.9305 -0.0020 0.3664
vn 0.7403 -0.0016 0.6723
vn 0.7402 -0.0016 0.6724
vn 0.4706 -0.0010 0.8823
vn 0.4705 -0.0010 0.8824
vn 0.1610 -0.0003 0.9870
vn 0.1609 -0.0003 0.9870
vn -0.1602 0.0003 0.9871
vn -0.1604 0.0003 0.9871
vn -0.4700 0.0010 0.8827
vn -0.4701 0.0010 0.8826
vn -0.7398 0.0016 0.6728
vn -0.7399 0.0016 0.6728
vn -0.9302 0.0020 0.3670
vn -0.9302 0.0020 0.3669
vn -0.9305 0.0020 -0.3663
vn -0.7403 0.0016 -0.6723
vn -0.4706 0.0010 -0.8823
vn -0.1610 0.0003 -0.9870
vn 0.1602 -0.0003 -0.9871
vn 0.4700 -0.0010 -0.8827
vn 0.7398 -0.0016 -0.6728
vn 0.9302 -0.0020 -0.3670
vn 0.9304 -0.0020 0.3664
vn 0.4704 -0.0010 0.8824
vn 0.1607 -0.0003 0.9870
vn -0.1605 0.0003 0.9870
vn -0.4702 0.0010 0.8826
vn -0.7399 0.0016 0.6727
vn -0.9303 0.0020 0.3669
vn -1.0000 0.0022 -0.0051
vn 0.0043 -0.0000 -1.0000
vn 1.0000 -0.0022 0.0051
vn -0.0043 0.0000 1.0000
# 62 vertex normals

vt 1.0000 0.0000 0.0000
vt 1.0000 1.0000 0.0000
vt 0.0000 1.0000 0.0000
vt 0.0000 0.0000 0.0000
vt 0.7500 0.0000 1.0000
vt 0.8056 0.0000 1.0000
vt 0.8056 0.2000 1.0000
vt 0.7500 0.2000 1.0000
vt 0.8611 0.0000 1.0000
vt 0.8611 0.2000 1.0000
vt 0.9167 0.0000 1.0000
vt 0.9167 0.2000 1.0000
vt 0.9722 0.0000 1.0000
vt 0.9722 0.2000 1.0000
vt 1.0278 0.0000 1.0000
vt 1.0278 0.2000 1.0000
vt 0.0278 0.0000 1.0000
vt 0.0833 0.0000 1.0000
vt 0.0833 0.2000 1.0000
vt 0.0278 0.2000 1.0000
vt 0.1389 0.0000 1.0000
vt 0.1389 0.2000 1.0000
vt 0.1944 0.0000 1.0000
vt 0.1944 0.2000 1.0000
vt 0.2500 0.0000 1.0000
vt 0.2500 0.2000 1.0000
vt 0.3056 0.0000 1.0000
vt 0.3056 0.2000 1.0000
vt 0.3611 0.0000 1.0000
vt 0.3611 0.2000 1.0000
vt 0.4167 0.0000 1.0000
vt 0.4167 0.2000 1.0000
vt 0.4722 0.0000 1.0000
vt 0.4722 0.2000 1.0000
vt 0.5278 0.0000 1.0000
vt 0.5278 0.2000 1.0000
vt 0.5833 0.0000 1.0000
vt 0.5833 0.2000 1.0000
vt 0.6389 0.0000 1.0000
vt 0.6389 0.2000 1.0000
vt 0.6944 0.0000 1.0000
vt 0.6944 0.2000 1.0000
vt 0.8056 0.4000 1.0000
vt 0.7500 0.4000 1.0000
vt 0.8611 0.4000 1.0000
vt 0.9167 0.4000 1.0000
vt 0.9722 0.4000 1.0000
vt 1.0278 0.4000 1.0000
vt 0.0833 0.4000 1.0000
vt 0.0278 0.4000 1.0000
vt 0.1389 0.4000 1.0000
vt 0.1944 0.4000 1.0000
vt 0.2500 0.4000 1.0000
vt 0.3056 0.4000 1.0000
vt 0.3611 0.4000 1.0000
vt 0.4167 0.4000 1.0000
vt 0.4722 0.4000 1.0000
vt 0.5278 0.4000 1.0000
vt 0.5833 0.4000 1.0000
vt 0.6389 0.4000 1.0000
vt 0.6944 0.4000 1.0000
vt 0.8056 0.6000 1.0000
vt 0.7500 0.6000 1.0000
vt 0.8611 0.6000 1.0000
vt 0.9167 0.6000 1.0000
vt 0.9722 0.6000 1.0000
vt 1.0278 0.6000 1.0000
vt 0.0833 0.6000 1.0000
vt 0.0278 0.6000 1.0000
vt 0.1389 0.6000 1.0000
vt 0.1944 0.6000 1.0000
vt 0.2500 0.6000 1.0000
vt 0.3056 0.6000 1.0000
vt 0.3611 0.6000 1.0000
vt 0.4167 0.6000 1.0000
vt 0.4722 0.6000 1.0000
vt 0.5278 0.6000 1.0000
vt 0.5833 0.6000 1.0000
vt 0.6389 0.6000 1.0000
vt 0.6944 0.6000 1.0000
vt 0.8056 0.8000 1.0000
vt 0.7500 0.8000 1.0000
vt 0.8611 0.8000 1.0000
vt 0.9167 0.8000 1.0000
vt 0.9722 0.8000 1.0000
vt 1.0278 0.8000 1.0000
vt 0.0833 0.8000 1.0000
vt 0.0278 0.8000 1.0000
vt 0.1389 0.8000 1.0000
vt 0.1944 0.8000 1.0000
vt 0.2500 0.8000 1.0000
vt 0.3056 0.8000 1.0000
vt 0.3611 0.8000 1.0000
vt 0.4167 0.8000 1.0000
vt 0.4722 0.8000 1.0000
vt 0.5278 0.8000 1.0000
vt 0.5833 0.8000 1.0000
vt 0.6389 0.8000 1.0000
vt 0.6944 0.8000 1.0000
vt 0.8056 1.0000 1.0000
vt 0.7500 1.0000 1.0000
vt 0.8611 1.0000 1.0000
vt 0.9167 1.0000 1.0000
vt 0.9722 1.0000 1.0000
vt 1.0278 1.0000 1.0000
vt 0.0833 1.0000 1.0000
vt 0.0278 1.0000 1.0000
vt 0.1389 1.0000 1.0000
vt 0.1944 1.0000 1.0000
vt 0.2500 1.0000 1.0000
vt 0.3056 1.0000 1.0000
vt 0.3611 1.0000 1.0000
vt 0.4167 1.0000 1.0000
vt 0.4722 1.0000 1.0000
vt 0.5278 1.0000 1.0000
vt 0.5833 1.0000 1.0000
vt 0.6389 1.0000 1.0000
vt 0.6944 1.0000 1.0000
vt 0.6710 0.9698 -0.2500
vt 0.8214 0.8830 -0.2500
vt 0.9330 0.7500 -0.2500
vt 0.9924 0.5868 -0.2500
vt 0.9924 0.4132 -0.2500
vt 0.9330 0.2500 -0.2500
vt 0.8214 0.1170 -0.2500
vt 0.6710 0.0302 -0.2500
vt 0.5000 0.0000 -0.2500
vt 0.3290 0.0302 -0.2500
vt 0.1786 0.1170 -0.2500
vt 0.0670 0.2500 -0.2500
vt 0.0076 0.4132 -0.2500
vt 0.0076 0.5868 -0.2500
vt 0.0670 0.7500 -0.2500
vt 0.1786 0.8830 -0.2500
vt 0.3290 0.9698 -0.2500
vt 0.5000 1.0000 -0.2500
vt 0.5000 1.0000 0.2500
vt 0.3290 0.9698 0.2500
vt 0.1786 0.8830 0.2500
vt 0.0670 0.7500 0.2500
vt 0.0076 0.5868 0.2500
vt 0.0076 0.4132 0.2500
vt 0.0670 0.2500 0.2500
vt 0.1786 0.1170 0.2500
vt 0.3290 0.0302 0.2500
vt 0.5000 0.0000 0.2500
vt 0.6710 0.0302 0.2500
vt 0.8214 0.1170 0.2500
vt 0.9330 0.2500 0.2500
vt 0.9924 0.4132 0.2500
vt 0.9924 0.5868 0.2500
vt 0.9330 0.7500 0.2500
vt 0.8214 0.8830 0.2500
vt 0.6710 0.9698 0.2500
# 154 texture coords

g Cylinder003
usemtl wire_177148027
s 2
f 1/1/1 2/2/1 3/3/1 4/4/1 
s 4
f 5/4/2 6/1/2 7/2/2 8/3/2 
s 8
f 1/4/3 4/1/3 6/2/3 5/3/3 
s 16
f 4/4/4 3/1/4 7/2/4 6/3/4 
s 32
f 3/4/5 2/1/5 8/2/5 7/3/5 
s 64
f 2/4/6 1/1/6 5/2/6 8/3/6 
s 2
f 9/1/7 10/2/7 11/3/7 12/4/1 
s 4
f 13/4/8 14/1/8 15/2/8 16/3/2 
s 8
f 9/4/9 12/1/9 14/2/9 13/3/9 
s 16
f 12/4/10 11/1/10 15/2/10 14/3/10 
s 32
f 11/4/11 10/1/11 16/2/11 15/3/11 
s 64
f 10/4/12 9/1/12 13/2/12 16/3/12 
s 8
f 17/5/10 18/6/13 19/7/14 20/8/10 
f 18/6/13 21/9/15 22/10/15 19/7/14 
f 21/9/15 23/11/16 24/12/17 22/10/15 
f 23/11/16 25/13/18 26/14/19 24/12/17 
f 25/13/18 27/15/20 28/16/21 26/14/19 
f 27/17/20 29/18/22 30/19/23 28/20/21 
f 29/18/22 31/21/24 32/22/25 30/19/23 
f 31/21/24 33/23/26 34/24/27 32/22/25 
f 33/23/26 35/25/12 36/26/12 34/24/27 
f 35/25/12 37/27/28 38/28/29 36/26/12 
f 37/27/28 39/29/30 40/30/31 38/28/29 
f 39/29/30 41/31/32 42/32/33 40/30/31 
f 41/31/32 43/33/34 44/34/35 42/32/33 
f 43/33/34 45/35/36 46/36/37 44/34/35 
f 45/35/36 47/37/38 48/38/39 46/36/37 
f 47/37/38 49/39/40 50/40/41 48/38/39 
f 49/39/40 51/41/42 52/42/43 50/40/41 
f 51/41/42 17/5/10 20/8/10 52/42/43 
f 20/8/10 19/7/14 53/43/14 54/44/10 
f 19/7/14 22/10/15 55/45/15 53/43/14 
f 22/10/15 24/12/17 56/46/17 55/45/15 
f 24/12/17 26/14/19 57/47/19 56/46/17 
f 26/14/19 28/16/21 58/48/21 57/47/19 
f 28/20/21 30/19/23 59/49/23 58/50/21 
f 30/19/23 32/22/25 60/51/25 59/49/23 
f 32/22/25 34/24/27 61/52/27 60/51/25 
f 34/24/27 36/26/12 62/53/12 61/52/27 
f 36/26/12 38/28/29 63/54/29 62/53/12 
f 38/28/29 40/30/31 64/55/31 63/54/29 
f 40/30/31 42/32/33 65/56/33 64/55/31 
f 42/32/33 44/34/35 66/57/35 65/56/33 
f 44/34/35 46/36/37 67/58/37 66/57/35 
f 46/36/37 48/38/39 68/59/39 67/58/37 
f 48/38/39 50/40/41 69/60/41 68/59/39 
f 50/40/41 52/42/43 70/61/43 69/60/41 
f 52/42/43 20/8/10 54/44/10 70/61/43 
f 54/44/10 53/43/14 71/62/14 72/63/10 
f 53/43/14 55/45/15 73/64/15 71/62/14 
f 55/45/15 56/46/17 74/65/17 73/64/15 
f 56/46/17 57/47/19 75/66/19 74/65/17 
f 57/47/19 58/48/21 76/67/21 75/66/19 
f 58/50/21 59/49/23 77/68/23 76/69/21 
f 59/49/23 60/51/25 78/70/25 77/68/23 
f 60/51/25 61/52/27 79/71/27 78/70/25 
f 61/52/27 62/53/12 80/72/12 79/71/27 
f 62/53/12 63/54/29 81/73/29 80/72/12 
f 63/54/29 64/55/31 82/74/31 81/73/29 
f 64/55/31 65/56/33 83/75/33 82/74/31 
f 65/56/33 66/57/35 84/76/35 83/75/33 
f 66/57/35 67/58/37 85/77/37 84/76/35 
f 67/58/37 68/59/39 86/78/39 85/77/37 
f 68/59/39 69/60/41 87/79/41 86/78/39 
f 69/60/41 70/61/43 88/80/43 87/79/41 
f 70/61/43 54/44/10 72/63/10 88/80/43 
f 72/63/10 71/62/14 89/81/14 90/82/10 
f 71/62/14 73/64/15 91/83/15 89/81/14 
f 73/64/15 74/65/17 92/84/17 91/83/15 
f 74/65/17 75/66/19 93/85/19 92/84/17 
f 75/66/19 76/67/21 94/86/21 93/85/19 
f 76/69/21 77/68/23 95/87/23 94/88/21 
f 77/68/23 78/70/25 96/89/25 95/87/23 
f 78/70/25 79/71/27 97/90/27 96/89/25 
f 79/71/27 80/72/12 98/91/12 97/90/27 
f 80/72/12 81/73/29 99/92/29 98/91/12 
f 81/73/29 82/74/31 100/93/31 99/92/29 
f 82/74/31 83/75/33 101/94/33 100/93/31 
f 83/75/33 84/76/35 102/95/35 101/94/33 
f 84/76/35 85/77/37 103/96/37 102/95/35 
f 85/77/37 86/78/39 104/97/39 103/96/37 
f 86/78/39 87/79/41 105/98/41 104/97/39 
f 87/79/41 88/80/43 106/99/43 105/98/41 
f 88/80/43 72/63/10 90/82/10 106/99/43 
f 90/82/10 89/81/14 107/100/44 108/101/10 
f 89/81/14 91/83/15 109/102/45 107/100/44 
f 91/83/15 92/84/17 110/103/46 109/102/45 
f 92/84/17 93/85/19 111/104/47 110/103/46 
f 93/85/19 94/86/21 112/105/48 111/104/47 
f 94/88/21 95/87/23 113/106/49 112/107/48 
f 95/87/23 96/89/25 114/108/50 113/106/49 
f 96/89/25 97/90/27 115/109/51 114/108/50 
f 97/90/27 98/91/12 116/110/12 115/109/51 
f 98/91/12 99/92/29 117/111/52 116/110/12 
f 99/92/29 100/93/31 118/112/31 117/111/52 
f 100/93/31 101/94/33 119/113/53 118/112/31 
f 101/94/33 102/95/35 120/114/54 119/113/53 
f 102/95/35 103/96/37 121/115/55 120/114/54 
f 103/96/37 104/97/39 122/116/56 121/115/55 
f 104/97/39 105/98/41 123/117/57 122/116/56 
f 105/98/41 106/99/43 124/118/58 123/117/57 
f 106/99/43 90/82/10 108/101/10 124/118/58 
s 1
f 51/119/1 49/120/1 47/121/1 45/122/1 43/123/7 41/124/1 39/125/1 37/126/1 35/127/1 33/128/1 31/129/1 29/130/1 27/131/1 25/132/1 23/133/1 21/134/1 18/135/1 17/136/1 
f 108/137/2 107/138/2 109/139/2 110/140/2 111/141/8 112/142/2 113/143/2 114/144/2 115/145/2 116/146/2 117/147/2 118/148/2 119/149/2 120/150/2 121/151/2 122/152/2 123/153/2 124/154/2 
s 2
f 125/1/1 126/2/1 127/3/1 128/4/1 
s 4
f 129/4/2 130/1/2 131/2/2 132/3/2 
s 8
f 125/4/9 128/1/9 130/2/9 129/3/9 
s 16
f 128/4/10 127/1/10 131/2/10 130/3/10 
s 32
f 127/4/11 126/1/11 132/2/11 131/3/11 
s 64
f 126/4/12 125/1/12 129/2/12 132/3/12 
s 2
f 133/1/7 134/2/7 135/3/7 136/4/1 
s 4
f 137/4/8 138/1/8 139/2/8 140/3/2 
s 8
f 133/4/9 136/1/9 138/2/9 137/3/9 
s 16
f 136/4/10 135/1/10 139/2/10 138/3/10 
s 32
f 135/4/11 134/1/11 140/2/11 139/3/11 
s 64
f 134/4/12 133/1/12 137/2/12 140/3/12 
s 2
f 141/1/1 142/2/1 143/3/1 144/4/1 
s 4
f 145/4/8 146/1/2 147/2/8 148/3/8 
s 8
f 141/4/9 144/1/9 146/2/9 145/3/9 
s 16
f 144/4/10 143/1/10 147/2/10 146/3/10 
s 32
f 143/4/11 142/1/11 148/2/11 147/3/11 
s 64
f 142/4/12 141/1/12 145/2/12 148/3/12 
s 2
f 149/1/1 150/2/1 151/3/1 152/4/1 
s 4
f 153/4/2 154/1/2 155/2/2 156/3/2 
s 8
f 149/4/59 152/1/59 154/2/59 153/3/59 
s 16
f 152/4/60 151/1/60 155/2/60 154/3/60 
s 32
f 151/4/61 150/1/61 156/2/61 155/3/61 
s 64
f 150/4/62 149/1/62 153/2/62 156/3/62 
# 128 polygons

